%YAML 1.1
%TAG !u! tag:unity3d.com,2011:
--- !u!1 &4161744214655453628
GameObject:
  m_ObjectHideFlags: 0
  m_CorrespondingSourceObject: {fileID: 0}
  m_PrefabInstance: {fileID: 0}
  m_PrefabAsset: {fileID: 0}
  serializedVersion: 6
  m_Component:
  - component: {fileID: 334653528544864045}
  - component: {fileID: 4696892630738590150}
  m_Layer: 31
  m_Name: Blokitus
  m_TagString: Untagged
  m_Icon: {fileID: 0}
  m_NavMeshLayer: 0
  m_StaticEditorFlags: 0
  m_IsActive: 1
--- !u!4 &334653528544864045
Transform:
  m_ObjectHideFlags: 0
  m_CorrespondingSourceObject: {fileID: 0}
  m_PrefabInstance: {fileID: 0}
  m_PrefabAsset: {fileID: 0}
  m_GameObject: {fileID: 4161744214655453628}
  m_LocalRotation: {x: 0, y: 0, z: 0, w: 1}
  m_LocalPosition: {x: 0, y: 0, z: 0}
  m_LocalScale: {x: 1, y: 1, z: 1}
  m_Children:
  - {fileID: 8978515120400592210}
  m_Father: {fileID: 0}
  m_RootOrder: 0
  m_LocalEulerAnglesHint: {x: 0, y: 0, z: 0}
--- !u!156049354 &4696892630738590150
Grid:
  m_ObjectHideFlags: 0
  m_CorrespondingSourceObject: {fileID: 0}
  m_PrefabInstance: {fileID: 0}
  m_PrefabAsset: {fileID: 0}
  m_GameObject: {fileID: 4161744214655453628}
  m_Enabled: 1
  m_CellSize: {x: 1, y: 1, z: 0}
  m_CellGap: {x: 0, y: 0, z: 0}
  m_CellLayout: 0
  m_CellSwizzle: 0
--- !u!1 &4663776746665382152
GameObject:
  m_ObjectHideFlags: 0
  m_CorrespondingSourceObject: {fileID: 0}
  m_PrefabInstance: {fileID: 0}
  m_PrefabAsset: {fileID: 0}
  serializedVersion: 6
  m_Component:
  - component: {fileID: 8978515120400592210}
  - component: {fileID: 91123853476516440}
  - component: {fileID: 6449469611162886639}
  m_Layer: 31
  m_Name: Layer1
  m_TagString: Untagged
  m_Icon: {fileID: 0}
  m_NavMeshLayer: 0
  m_StaticEditorFlags: 0
  m_IsActive: 1
--- !u!4 &8978515120400592210
Transform:
  m_ObjectHideFlags: 0
  m_CorrespondingSourceObject: {fileID: 0}
  m_PrefabInstance: {fileID: 0}
  m_PrefabAsset: {fileID: 0}
  m_GameObject: {fileID: 4663776746665382152}
  m_LocalRotation: {x: -0, y: -0, z: -0, w: 1}
  m_LocalPosition: {x: 0, y: 0, z: 0}
  m_LocalScale: {x: 1, y: 1, z: 1}
  m_Children: []
  m_Father: {fileID: 334653528544864045}
  m_RootOrder: 0
  m_LocalEulerAnglesHint: {x: 0, y: 0, z: 0}
--- !u!1839735485 &91123853476516440
Tilemap:
  m_ObjectHideFlags: 0
  m_CorrespondingSourceObject: {fileID: 0}
  m_PrefabInstance: {fileID: 0}
  m_PrefabAsset: {fileID: 0}
  m_GameObject: {fileID: 4663776746665382152}
  m_Enabled: 1
  m_Tiles:
  - first: {x: -1, y: -2, z: 0}
    second:
      serializedVersion: 2
      m_TileIndex: 8
      m_TileSpriteIndex: 8
      m_TileMatrixIndex: 0
      m_TileColorIndex: 12
      m_TileObjectToInstantiateIndex: 65535
      m_AllTileFlags: 1073741825
  - first: {x: 0, y: -2, z: 0}
    second:
      serializedVersion: 2
      m_TileIndex: 7
      m_TileSpriteIndex: 7
      m_TileMatrixIndex: 0
      m_TileColorIndex: 12
      m_TileObjectToInstantiateIndex: 65535
      m_AllTileFlags: 1073741825
  - first: {x: 1, y: -2, z: 0}
    second:
      serializedVersion: 2
      m_TileIndex: 5
      m_TileSpriteIndex: 5
      m_TileMatrixIndex: 0
      m_TileColorIndex: 12
      m_TileObjectToInstantiateIndex: 65535
      m_AllTileFlags: 1073741825
  - first: {x: -1, y: -1, z: 0}
    second:
      serializedVersion: 2
      m_TileIndex: 12
      m_TileSpriteIndex: 12
      m_TileMatrixIndex: 0
      m_TileColorIndex: 12
      m_TileObjectToInstantiateIndex: 65535
      m_AllTileFlags: 1073741825
  - first: {x: 0, y: -1, z: 0}
    second:
      serializedVersion: 2
      m_TileIndex: 11
      m_TileSpriteIndex: 11
      m_TileMatrixIndex: 0
      m_TileColorIndex: 12
      m_TileObjectToInstantiateIndex: 65535
      m_AllTileFlags: 1073741825
  - first: {x: 1, y: -1, z: 0}
    second:
      serializedVersion: 2
      m_TileIndex: 10
      m_TileSpriteIndex: 10
      m_TileMatrixIndex: 0
      m_TileColorIndex: 12
      m_TileObjectToInstantiateIndex: 65535
      m_AllTileFlags: 1073741825
  - first: {x: -1, y: 0, z: 0}
    second:
      serializedVersion: 2
      m_TileIndex: 9
      m_TileSpriteIndex: 9
      m_TileMatrixIndex: 0
      m_TileColorIndex: 12
      m_TileObjectToInstantiateIndex: 65535
      m_AllTileFlags: 1073741825
  - first: {x: 0, y: 0, z: 0}
    second:
      serializedVersion: 2
      m_TileIndex: 6
      m_TileSpriteIndex: 6
      m_TileMatrixIndex: 0
      m_TileColorIndex: 12
      m_TileObjectToInstantiateIndex: 65535
      m_AllTileFlags: 1073741825
  - first: {x: 1, y: 0, z: 0}
    second:
      serializedVersion: 2
      m_TileIndex: 4
      m_TileSpriteIndex: 4
      m_TileMatrixIndex: 0
      m_TileColorIndex: 12
      m_TileObjectToInstantiateIndex: 65535
      m_AllTileFlags: 1073741825
  - first: {x: 0, y: 1, z: 0}
    second:
      serializedVersion: 2
      m_TileIndex: 1
      m_TileSpriteIndex: 1
      m_TileMatrixIndex: 0
      m_TileColorIndex: 12
      m_TileObjectToInstantiateIndex: 65535
      m_AllTileFlags: 1073741825
  - first: {x: 1, y: 1, z: 0}
    second:
      serializedVersion: 2
      m_TileIndex: 2
      m_TileSpriteIndex: 2
      m_TileMatrixIndex: 0
      m_TileColorIndex: 12
      m_TileObjectToInstantiateIndex: 65535
      m_AllTileFlags: 1073741825
  - first: {x: 0, y: 2, z: 0}
    second:
      serializedVersion: 2
      m_TileIndex: 3
      m_TileSpriteIndex: 3
      m_TileMatrixIndex: 0
      m_TileColorIndex: 12
      m_TileObjectToInstantiateIndex: 65535
      m_AllTileFlags: 1073741825
  - first: {x: 1, y: 2, z: 0}
    second:
      serializedVersion: 2
      m_TileIndex: 0
      m_TileSpriteIndex: 0
      m_TileMatrixIndex: 0
      m_TileColorIndex: 12
      m_TileObjectToInstantiateIndex: 65535
      m_AllTileFlags: 1073741825
  m_AnimatedTiles: {}
  m_TileAssetArray:
  - m_RefCount: 1
    m_Data: {fileID: 11400000, guid: 965eb3dee2bc6504ba7c1e725da9af13, type: 2}
  - m_RefCount: 1
    m_Data: {fileID: 11400000, guid: 15e47d4e0be3cb04baf6f10685339741, type: 2}
  - m_RefCount: 1
    m_Data: {fileID: 11400000, guid: 0acd52a6bc0a9cc43b5a39ecac6c3423, type: 2}
  - m_RefCount: 1
    m_Data: {fileID: 11400000, guid: 553c80278734cef47b49926fdbc7fec3, type: 2}
  - m_RefCount: 1
    m_Data: {fileID: 11400000, guid: 14f1ba5d38a42de46aed281dba289d61, type: 2}
  - m_RefCount: 1
    m_Data: {fileID: 11400000, guid: d575c3113ddfcfd4d9b5851640b4c237, type: 2}
  - m_RefCount: 1
    m_Data: {fileID: 11400000, guid: 8ca78b932c4901e44a8b41ddde3d360f, type: 2}
  - m_RefCount: 1
    m_Data: {fileID: 11400000, guid: a39cfe462a37e6a45968ab5fdfcba4b2, type: 2}
  - m_RefCount: 1
    m_Data: {fileID: 11400000, guid: 0087444922ffb3b489885c7803655723, type: 2}
  - m_RefCount: 1
    m_Data: {fileID: 11400000, guid: a171b1fd5a26d1e49957188b22d1528e, type: 2}
  - m_RefCount: 1
    m_Data: {fileID: 11400000, guid: 7687cec6d5178bc4385515be28b37739, type: 2}
  - m_RefCount: 1
    m_Data: {fileID: 11400000, guid: ca71aa04bb33a7842800a65d97abd958, type: 2}
  - m_RefCount: 1
    m_Data: {fileID: 11400000, guid: 35a446dd107f46a4a9df443d5fba1da1, type: 2}
  - m_RefCount: 0
    m_Data: {fileID: 0}
  - m_RefCount: 0
    m_Data: {fileID: 0}
  - m_RefCount: 0
    m_Data: {fileID: 0}
  - m_RefCount: 0
    m_Data: {fileID: 0}
  - m_RefCount: 0
    m_Data: {fileID: 0}
  - m_RefCount: 0
    m_Data: {fileID: 0}
  - m_RefCount: 0
    m_Data: {fileID: 0}
  - m_RefCount: 0
    m_Data: {fileID: 0}
  - m_RefCount: 0
    m_Data: {fileID: 0}
  - m_RefCount: 0
    m_Data: {fileID: 0}
  - m_RefCount: 0
    m_Data: {fileID: 0}
  - m_RefCount: 0
    m_Data: {fileID: 0}
  - m_RefCount: 0
    m_Data: {fileID: 0}
  m_TileSpriteArray:
  - m_RefCount: 1
    m_Data: {fileID: 1712239408819579797, guid: a46bda2c3354a2b479da50a5c1f61ad4,
      type: 3}
  - m_RefCount: 1
    m_Data: {fileID: -428041709058813816, guid: a46bda2c3354a2b479da50a5c1f61ad4,
      type: 3}
  - m_RefCount: 1
    m_Data: {fileID: -4923525059069763602, guid: a46bda2c3354a2b479da50a5c1f61ad4,
      type: 3}
  - m_RefCount: 1
    m_Data: {fileID: 7019410030828898042, guid: a46bda2c3354a2b479da50a5c1f61ad4,
      type: 3}
  - m_RefCount: 1
    m_Data: {fileID: 2061792766734885926, guid: 87580e02f1346a24e87e2e1d02866008,
      type: 3}
  - m_RefCount: 1
    m_Data: {fileID: 8330751246443194826, guid: 87580e02f1346a24e87e2e1d02866008,
      type: 3}
  - m_RefCount: 1
    m_Data: {fileID: -273414876887049396, guid: 87580e02f1346a24e87e2e1d02866008,
      type: 3}
  - m_RefCount: 1
    m_Data: {fileID: -4405642142430763727, guid: 87580e02f1346a24e87e2e1d02866008,
      type: 3}
  - m_RefCount: 1
    m_Data: {fileID: -7054421337931739608, guid: 87580e02f1346a24e87e2e1d02866008,
      type: 3}
  - m_RefCount: 1
    m_Data: {fileID: -5897263994750526655, guid: 87580e02f1346a24e87e2e1d02866008,
      type: 3}
  - m_RefCount: 1
    m_Data: {fileID: 2517089518390579428, guid: 87580e02f1346a24e87e2e1d02866008,
      type: 3}
  - m_RefCount: 1
    m_Data: {fileID: 660326114124716441, guid: 87580e02f1346a24e87e2e1d02866008, type: 3}
  - m_RefCount: 1
    m_Data: {fileID: 101283812304094089, guid: 87580e02f1346a24e87e2e1d02866008, type: 3}
  - m_RefCount: 0
    m_Data: {fileID: 0}
  - m_RefCount: 0
    m_Data: {fileID: 0}
  - m_RefCount: 0
    m_Data: {fileID: 0}
  - m_RefCount: 0
    m_Data: {fileID: 0}
  - m_RefCount: 0
    m_Data: {fileID: 0}
  - m_RefCount: 0
    m_Data: {fileID: 0}
  - m_RefCount: 0
    m_Data: {fileID: 0}
  - m_RefCount: 0
    m_Data: {fileID: 0}
  - m_RefCount: 0
    m_Data: {fileID: 0}
  - m_RefCount: 0
    m_Data: {fileID: 0}
  - m_RefCount: 0
    m_Data: {fileID: 0}
  - m_RefCount: 0
    m_Data: {fileID: 0}
  - m_RefCount: 0
    m_Data: {fileID: 0}
  m_TileMatrixArray:
  - m_RefCount: 13
    m_Data:
      e00: 1
      e01: 0
      e02: 0
      e03: 0
      e10: 0
      e11: 1
      e12: 0
      e13: 0
      e20: 0
      e21: 0
      e22: 1
      e23: 0
      e30: 0
      e31: 0
      e32: 0
      e33: 1
  m_TileColorArray:
  - m_RefCount: 0
    m_Data: {r: 6.8825684, g: 6.8825684, b: 6.8825684, a: 6.8825684}
  - m_RefCount: 0
    m_Data: {r: 6.8705444, g: 6.8705444, b: 6.8705444, a: 6.8705444}
  - m_RefCount: 0
    m_Data: {r: 5.0657196, g: 5.0657196, b: 5.0657196, a: 5.0657196}
  - m_RefCount: 0
    m_Data: {r: 6.8813324, g: 6.8813324, b: 6.8813324, a: 6.8813324}
  - m_RefCount: 0
    m_Data: {r: 6.865341, g: 6.865341, b: 6.865341, a: 6.865341}
  - m_RefCount: 0
    m_Data: {r: 6.874481, g: 6.874481, b: 6.874481, a: 6.874481}
  - m_RefCount: 0
    m_Data: {r: 2.4102783, g: 2.4102783, b: 2.4102783, a: 2.4102783}
  - m_RefCount: 0
    m_Data: {r: 5.025009, g: 5.025009, b: 5.025009, a: 5.025009}
  - m_RefCount: 0
    m_Data: {r: 6.873703, g: 6.873703, b: 6.873703, a: 6.873703}
  - m_RefCount: 0
    m_Data: {r: 6.8715057, g: 6.8715057, b: 6.8715057, a: 6.8715057}
  - m_RefCount: 0
    m_Data: {r: 6.8017426, g: 6.8017426, b: 6.8017426, a: 6.8017426}
  - m_RefCount: 0
    m_Data: {r: 4.942459, g: 4.942459, b: 4.942459, a: 4.942459}
  - m_RefCount: 13
    m_Data: {r: 1, g: 1, b: 1, a: 1}
  - m_RefCount: 0
    m_Data: {r: 6.8558807, g: 6.8558807, b: 6.8558807, a: 6.8558807}
  m_TileObjectToInstantiateArray: []
  m_AnimationFrameRate: 1
  m_Color: {r: 1, g: 1, b: 1, a: 1}
  m_Origin: {x: -4, y: -3, z: 0}
  m_Size: {x: 17, y: 14, z: 1}
  m_TileAnchor: {x: 0.5, y: 0.5, z: 0}
  m_TileOrientation: 0
  m_TileOrientationMatrix:
    e00: 1
    e01: 0
    e02: 0
    e03: 0
    e10: 0
    e11: 1
    e12: 0
    e13: 0
    e20: 0
    e21: 0
    e22: 1
    e23: 0
    e30: 0
    e31: 0
    e32: 0
    e33: 1
--- !u!483693784 &6449469611162886639
TilemapRenderer:
  m_ObjectHideFlags: 0
  m_CorrespondingSourceObject: {fileID: 0}
  m_PrefabInstance: {fileID: 0}
  m_PrefabAsset: {fileID: 0}
  m_GameObject: {fileID: 4663776746665382152}
  m_Enabled: 0
  m_CastShadows: 0
  m_ReceiveShadows: 0
  m_DynamicOccludee: 0
  m_MotionVectors: 1
  m_LightProbeUsage: 0
  m_ReflectionProbeUsage: 0
  m_RayTracingMode: 0
  m_RenderingLayerMask: 1
  m_RendererPriority: 0
  m_Materials:
  - {fileID: 10754, guid: 0000000000000000f000000000000000, type: 0}
  m_StaticBatchInfo:
    firstSubMesh: 0
    subMeshCount: 0
  m_StaticBatchRoot: {fileID: 0}
  m_ProbeAnchor: {fileID: 0}
  m_LightProbeVolumeOverride: {fileID: 0}
  m_ScaleInLightmap: 1
  m_ReceiveGI: 1
  m_PreserveUVs: 0
  m_IgnoreNormalsForChartDetection: 0
  m_ImportantGI: 0
  m_StitchLightmapSeams: 1
  m_SelectedEditorRenderState: 0
  m_MinimumChartSize: 4
  m_AutoUVMaxDistance: 0.5
  m_AutoUVMaxAngle: 89
  m_LightmapParameters: {fileID: 0}
  m_SortingLayerID: 0
  m_SortingLayer: 0
  m_SortingOrder: 0
  m_ChunkSize: {x: 32, y: 32, z: 32}
  m_ChunkCullingBounds: {x: 0, y: 0, z: 0}
  m_MaxChunkCount: 16
  m_MaxFrameAge: 16
  m_SortOrder: 0
  m_Mode: 0
  m_DetectChunkCullingBounds: 0
  m_MaskInteraction: 0
--- !u!114 &5574002970209219045
MonoBehaviour:
  m_ObjectHideFlags: 0
  m_CorrespondingSourceObject: {fileID: 0}
  m_PrefabInstance: {fileID: 0}
  m_PrefabAsset: {fileID: 0}
  m_GameObject: {fileID: 0}
  m_Enabled: 1
  m_EditorHideFlags: 0
  m_Script: {fileID: 12395, guid: 0000000000000000e000000000000000, type: 0}
  m_Name: Palette Settings
  m_EditorClassIdentifier: 
  cellSizing: 0
